Topic Modelling using Latent Dirichlet Allocation
…
With the beta and gamma values, we can then use tidyverse packages for visualization to for a better understanding of the document.

With the methods stated above, we are going to use LDA to perform topic modeling on our set of classic literature" Moby Dick, Dracula, Don Quixote, and War and Peace.

In addition to the LDA technique, we would also do a sentiment analysis on our text document, using the lexicon NRC to assign a positive/negative value to each word in the document. We would then calculate the sentiment score for every 150-line part of the books, which is equal to positive score minus negative score.

Last but not least, we will calculate the term frequencyinverse document frequency, or tf_idf, to see what words are most important in each of the books. Tfidf is one of the most popular term-weighting schemes today. The idea of tf-idf is to find the important words for the content of each document by decreasing the weight for commonly used words and increasing the weight for words that are not used very much in a collection or corpus of documents. The main point of tf-idf is to identify words that are important to one document within a collection of documents. We will use the bind_tf_idf() that is included in the package tidytext to do most of the calculations for this.

Pre-processing

We are going to retrieve the text of these four books from Project Gutenberg website through gutenberg package. As pre-processing, we will divide the books into separate chapters, and then into separate words. This can easily be done by creating a new variable called chapter, that increases by one every time chapter appeared in the text for each title. By doing this, we will know which word comes from which chapter and from which book. Although our LDA technique does not take chapters nor titles as an input, these information will help us with our visualization step as well as gaining more insight about the result later. We will also remove stop words from the document, which are a set of commonly used words in a language, to reduce the noise in our data.

For example, our tidied data will look like this:

## # A tibble: 1,374,666 x 2
##    document  word    
##    <chr>     <chr>   
##  1 Dracula_1 chapter 
##  2 Dracula_1 i       
##  3 Dracula_1 jonathan
##  4 Dracula_1 harkers
##  5 Dracula_1 journal 
##  6 Dracula_2 chapter 
##  7 Dracula_2 ii      
##  8 Dracula_2 jonathan
##  9 Dracula_2 harkers
## 10 Dracula_2 journal 
## # ... with 1,374,656 more rows
…
Figure 4. The gamma probabilities for each chapter within each book

We notice that almost all of the chapters from Don Quixote, Dracula, and Twenty Thousand Leagues Under the Sea were uniquely identified as a single topic each.

However, War and Peace seems are somewhat associated with other topics as well. There may be chapters where the topic most associated with a chapter belonged to another book. We can get this information, first by find the topic that was most associated with each chapter,

## # A tibble: 925 x 4
##    title       chapter topic gamma
##    <chr>         <int> <int> <dbl>
##  1 Don Quixote       1     3 0.990
##  2 Don Quixote       2     3 0.988
##  3 Don Quixote       3     3 0.988
##  4 Don Quixote       4     3 0.984
##  5 Don Quixote       5     3 0.981
##  6 Don Quixote       6     3 0.989
##  7 Don Quixote       7     3 0.989
##  8 Don Quixote       8     3 0.993
##  9 Don Quixote       9     3 0.990
## 10 Don Quixote      10     3 0.989
## # ... with 915 more rows

We can then compare each to the consensus topic for each book (the most common topic among its chapters), and see which were most often misidentified.

## # A tibble: 34 x 5
##    title         chapter topic gamma consensus
##    <chr>           <int> <int> <dbl> <chr>    
##  1 War and Peace      25     2 0.558 Dracula  
##  2 War and Peace      54     2 0.503 Dracula  
##  3 War and Peace      75     2 0.547 Dracula  
##  4 War and Peace      76     2 0.720 Dracula  
##  5 War and Peace      77     2 0.577 Dracula  
##  6 War and Peace     109     2 0.643 Dracula  
##  7 War and Peace     114     2 0.521 Dracula  
##  8 War and Peace     116     2 0.681 Dracula  
##  9 War and Peace     131     2 0.593 Dracula  
## 10 War and Peace     132     2 0.790 Dracula  
## # ... with 24 more rows

We see that there are quite a bit of chapters from War and Peace were misclassified. Most of the misclassfication comes from Dracula, although we do not yet know why. We can get this information by finding which words in each document were assigned to which topic.

## # A tibble: 311,668 x 6
##    title       chapter term  count .topic consensus  
##    <chr>         <int> <chr> <dbl>  <dbl> <chr>      
##  1 Don Quixote     107 don     127      3 Don Quixote
##  2 Don Quixote     222 don      85      3 Don Quixote
##  3 Don Quixote     177 don      64      3 Don Quixote
##  4 Don Quixote     232 don      57      3 Don Quixote
##  5 Don Quixote     219 don      54      3 Don Quixote
##  6 Don Quixote     132 don      37      3 Don Quixote
##  7 Don Quixote     127 don      39      3 Don Quixote
##  8 Don Quixote     159 don      50      3 Don Quixote
##  9 Don Quixote     152 don      49      3 Don Quixote
## 10 Don Quixote     169 don      26      3 Don Quixote
## # ... with 311,658 more rows
…
